
<?xml version="1.0" standalone="no"?>
<!DOCTYPE svg PUBLIC "-//W3C//DTD SVG 1.1//EN" "http://www.w3.org/Graphics/SVG/1.1/DTD/svg11.dtd" >
<!--
2017-12-28: Created with FontForge (http://fontforge.org)
-->
<svg xmlns="http://www.w3.org/2000/svg" xmlns:xlink="http://www.w3.org/1999/xlink" version="1.1">
<metadata>
Created by FontForge 20160405 at Thu Dec 28 10:11:17 2017
 By Apache
Copyright (c) 2017, Apache
</metadata>
<defs>
<font id="Flaticon" horiz-adv-x="512" >
  <font-face 
    font-family="Flaticon"
    font-weight="400"
    font-stretch="normal"
    units-per-em="512"
    panose-1="2 0 5 3 0 0 0 0 0 0"
    ascent="448"
    descent="-64"
    bbox="0 -64 512.002 448"
    underline-thickness="25.6"
    underline-position="-51.2"
    unicode-range="U+0020-F104"
  />
    <missing-glyph />
    <glyph glyph-name="space" unicode=" " horiz-adv-x="200" 
 />
    <glyph glyph-name="uniF100" unicode="&#xf100;" 
d="M508.494 211.762c2.24414 -2.24512 3.50586 -5.28906 3.50488 -8.46289v-109.445c0 -12.2227 -9.94238 -22.166 -22.166 -22.166c-0.119141 0 -0.233398 0.0146484 -0.350586 0.0185547c-5.46973 -32.6592 -33.9199 -57.6299 -68.1074 -57.6299
c-34.1807 0 -62.626 24.9629 -68.1035 57.6123h-158.483c-5.47754 -32.6504 -33.9229 -57.6123 -68.1035 -57.6123s-62.626 24.9629 -68.1045 57.6123h-36.4141c-12.2227 0 -22.166 9.94336 -22.166 22.167v253.902c0 12.2236 9.94336 22.166 22.166 22.166h306.033
c12.2969 0 22.6865 -10.1504 22.6865 -22.166v-45.6533h62.3076c3.1748 0 6.21875 -1.26172 8.46387 -3.50586zM408.235 278.166h-57.3496v-65.2754h122.624zM58.7627 95.626c5.89258 32.1484 34.0977 56.5938 67.9219 56.5938c33.8252 0 62.0283 -24.4453 67.9219 -56.5938
h132.341v250.358l-303.009 0.000976562v-250.359h34.8242zM126.685 38.0146c24.8867 0 45.1338 20.2461 45.1328 45.1328c0 24.8867 -20.2461 45.1338 -45.1328 45.1338s-45.1338 -20.2471 -45.1338 -45.1338s20.2471 -45.1328 45.1338 -45.1328zM421.375 38.0146
c24.8867 0 45.1348 20.2461 45.1338 45.1328c0 24.8867 -20.2471 45.1338 -45.1338 45.1338s-45.1328 -20.2471 -45.1328 -45.1338s20.2461 -45.1328 45.1328 -45.1328zM421.375 152.22c31.8711 0 58.7549 -21.7012 66.6855 -51.0996v87.832h-137.176v-93.3262h2.56836
c5.89355 32.1484 34.0967 56.5938 67.9219 56.5938z" />
    <glyph glyph-name="uniF102" unicode="&#xf102;" 
d="M349.46 186.775c0 12.8242 10.3955 23.2207 23.2197 23.2207s23.2207 -10.3965 23.2207 -23.2207c0 -12.8232 -10.3965 -23.2197 -23.2207 -23.2197s-23.2197 10.3965 -23.2197 23.2197zM326.24 256.436c6.96582 0 11.6084 -4.64453 11.6084 -11.6094
c0 -6.96582 -4.64355 -11.6104 -11.6094 -11.6104h-139.319c-6.96484 0 -11.6094 4.64453 -11.6094 11.6104c0 6.96484 4.64355 11.6094 11.6094 11.6094h139.32zM477.17 198.386c19.7363 0 34.8301 -15.0928 34.8291 -34.8281v-46.4395
c0 -19.7373 -15.0928 -34.8301 -34.8301 -34.8301h-17.415c-4.64453 -4.64453 -8.12695 -9.28711 -12.7715 -12.7705c-5.80469 -5.80469 -11.6094 -11.6094 -20.8975 -22.0586c-13.9307 -15.0928 -20.8975 -35.9912 -20.8975 -58.0508v-11.6094
c0 -19.7373 -15.0928 -34.8301 -34.8291 -34.8301h-23.2188c-19.7373 0 -34.8301 15.0928 -34.8301 34.8301v22.0586c0 6.96582 4.64355 11.6104 11.6104 11.6104c6.96484 0 11.6094 -4.64355 11.6094 -11.6104v-22.0586c0 -6.96484 4.64355 -11.6094 11.6094 -11.6094
h23.2207c6.96484 0 11.6094 4.64355 11.6094 11.6094v11.6094c0 27.8643 9.28809 53.4062 26.7031 73.1436c9.28809 11.6104 16.2539 17.415 22.0586 23.2197c5.80469 4.64453 10.4492 9.28809 16.2539 16.2539c2.32227 2.32227 4.64355 3.4834 8.12695 3.4834h19.7373
c6.96484 0 11.6094 4.64355 11.6094 11.6094v46.4395c0 6.96484 -4.64355 11.6094 -11.6094 11.6094c-16.2539 0 -30.1855 8.12793 -37.1514 23.2207c-8.12695 18.5752 -20.8975 34.8301 -37.1523 49.9219c-3.48242 2.32227 -4.64355 6.96582 -3.48242 11.6104
l15.0928 53.4053c-19.7373 -2.32129 -34.8301 -11.6094 -47.6006 -27.8633c-3.4834 -4.64453 -9.28809 -5.80566 -13.9326 -3.4834c-11.6104 5.80469 -30.1865 12.7705 -45.2793 16.2539c-13.9326 -11.6094 -31.3467 -18.5762 -51.084 -18.5762
c-45.2793 0 -81.2705 35.9912 -81.2705 81.2705s35.9912 81.2705 81.2705 81.2705s81.2705 -35.9912 81.2705 -81.2705c0 -16.2539 -4.64453 -31.3467 -12.7715 -44.1172c10.4492 -3.4834 20.8984 -6.9668 30.1865 -10.4492c19.7373 22.0586 45.2793 32.5078 76.626 31.3467
c3.4834 0 6.96582 -2.32324 9.28809 -4.64453c2.32129 -3.4834 3.4834 -6.9668 2.32129 -10.4492l-17.415 -61.5332c16.2539 -16.2539 27.8633 -33.6699 37.1514 -52.2451c3.4834 -6.9668 9.28809 -10.4492 16.2539 -10.4492zM256.581 302.875
c32.5068 0 58.0488 25.542 58.0498 58.0498c0 32.5078 -25.542 58.0498 -58.0498 58.0498c-32.5088 0 -58.0508 -25.542 -58.0508 -58.0498s25.542 -58.0498 58.0508 -58.0498zM283.283 2.17773c6.96582 1.16016 12.7705 -3.4834 12.7715 -11.6104
c0 -5.80566 -4.64453 -11.6104 -10.4492 -12.7715c-33.6689 -3.4834 -68.499 -1.16113 -99.8457 8.12695v-9.28809c0 -19.7373 -15.0928 -34.8301 -34.8301 -34.8301h-23.2197c-19.7373 0 -34.8301 15.0928 -34.8301 34.8301v26.7031
c0 18.5762 -6.96582 38.3125 -18.5762 53.4053c-3.48242 4.64453 -6.96582 9.28809 -10.4492 12.7715c-10.4492 12.7705 -18.5752 22.0586 -23.2197 34.8301c-3.4834 6.96582 -4.64355 16.2539 -5.80469 25.541c-19.7373 5.80566 -34.8301 23.2207 -34.8301 45.2793
c0 6.9668 4.64551 11.6094 11.6104 11.6094c6.96582 0 11.6094 -4.64258 11.6094 -11.6094c0 -9.28809 5.80566 -17.4141 12.7715 -20.8975c6.96582 65.0166 52.2441 123.065 123.065 152.091c5.80469 3.48242 12.7705 0 15.0928 -5.80566
c3.48242 -5.80469 0 -12.7705 -5.80469 -15.0918c-67.3379 -27.8652 -109.135 -83.5928 -109.135 -145.125c0 -11.6104 1.16211 -19.7373 3.4834 -27.8643c4.64453 -9.28809 10.4492 -17.4141 19.7373 -27.8633c3.4834 -3.4834 6.96582 -8.12695 10.4492 -11.6094
c16.2539 -19.7373 24.3809 -44.1191 24.3809 -68.5v-26.7031c0 -6.96484 4.64355 -11.6094 11.6094 -11.6094h23.2197c6.96582 0 11.6104 4.64355 11.6104 11.6094v25.542c0 3.4834 2.32227 6.96582 4.64453 9.28809c3.48242 2.32227 6.96582 2.32227 10.4492 1.16113
c32.5078 -11.6094 69.6592 -15.0928 104.489 -11.6094zM268.19 349.315c6.96582 0 11.6094 -4.64453 11.6094 -11.6094c0 -6.96582 -4.64355 -11.6104 -11.6094 -11.6104h-23.2197c-6.96484 0 -11.6094 4.64453 -11.6094 11.6104c0 6.96484 4.64355 11.6094 11.6094 11.6094
v23.2197c-6.96484 0 -11.6094 4.64453 -11.6094 11.6104c0 6.96484 4.64355 11.6094 11.6094 11.6094h11.6104c6.96484 0 11.6094 -4.64355 11.6094 -11.6094v-34.8301z" />
    <glyph glyph-name="uniF103" unicode="&#xf103;" 
d="M8.03906 175.113c-4.9043 2.24609 -8.03906 7.15039 -8.03906 12.541c0 141.168 114.836 256.012 256.006 256.012c141.174 0 256.004 -114.844 255.996 -256.021c0 -5.38867 -3.14453 -10.2852 -8.03906 -12.541c-1.8418 -0.842773 -3.80859 -1.25684 -5.75879 -1.25684
c-3.22363 0 -6.42188 1.13184 -8.97266 3.31641c-0.242188 0.206055 -25.3662 21.252 -55.0361 21.252c-16.7783 0 -32.1924 -6.9082 -45.7998 -20.5146c-2.62305 -2.625 -6.00879 -4.22461 -9.86328 -4.04395c-3.68164 0.0273438 -7.21191 1.52832 -9.78125 4.17676
c-0.206055 0.206055 -23.4873 23.4531 -53.3193 23.4531c-15.8184 0 -31.1416 -6.71875 -45.6279 -19.833v-164.664c0 -27.0459 22.0137 -49.0596 49.0498 -49.0596c27.0547 0 49.0625 22.0039 49.0625 49.0596c0 7.61816 6.17969 13.7979 13.7959 13.7979
c7.61719 0 13.7969 -6.17969 13.7969 -13.7979c0 -42.2695 -34.3828 -76.6553 -76.6553 -76.6553c-42.2695 0 -76.6455 34.3857 -76.6455 76.6553v164.682c-14.4863 13.1143 -29.8027 19.833 -45.6279 19.833c-29.6738 0 -53.0908 -23.2305 -53.3203 -23.4531
c-2.57812 -2.64062 -6.1084 -4.14941 -9.7998 -4.17676c-3.46777 -0.396484 -7.23633 1.41992 -9.84961 4.04199c-13.6133 13.6104 -29.0273 20.5156 -45.8057 20.5156c-29.4873 0 -54.7656 -21.0283 -55.0117 -21.2334
c-4.08398 -3.52246 -9.84961 -4.33105 -14.7539 -2.08496zM191.297 406.673c-86.4863 -25.5996 -151.766 -101.086 -162.231 -193.008c12.8408 6.40918 29.8447 12.3506 48.7393 12.3506c14.6055 0 28.3398 -3.52051 41.0977 -10.3838
c5.0752 84.0713 32.8086 154.187 72.3945 191.041zM482.944 213.665c-10.4658 91.9297 -75.7412 167.408 -162.228 193.008c39.584 -36.8545 67.3213 -106.97 72.3867 -191.041c12.7617 6.86328 26.4961 10.3838 41.1016 10.3838
c18.8984 0 35.8926 -5.95117 48.7393 -12.3506zM315.432 229.079c20.0029 0 37.2686 -7.03809 50.042 -14.4844c-6.3418 97.7451 -46.5293 177.765 -95.6699 190.587v-29.1387v-159.989c14.4346 8.64746 29.7041 13.0254 45.6279 13.0254zM146.534 214.595
c12.7715 7.44629 30.0488 14.4844 50.0459 14.4844c15.9277 0 31.1895 -4.37988 45.6279 -13.0254v159.989v29.1387c-49.1406 -12.832 -89.3281 -92.8418 -95.6738 -190.587z" />
    <glyph glyph-name="uniF104" unicode="&#xf104;" 
d="M403.234 52.1562c60.5264 -26.4189 83.166 -36.3105 83.166 -69.0693c0 -24.6436 -22.4434 -47.0869 -47.0869 -47.0869h-366.627c-24.6436 0 -47.0869 22.4434 -47.0869 47.0869c0 32.7588 22.6396 42.6504 83.1572 69.0693
c13.6104 5.95605 29.0469 12.6973 46.626 20.7354l0.793945 0.358398l0.623047 -0.606445c5.87988 -5.7002 12.3994 -11.1104 19.3711 -16.0596l1.79199 -1.2627l-1.98828 -0.930664c-22.0586 -10.2578 -41.1816 -18.6631 -57.3525 -25.7363
c-59.9902 -26.1807 -67.5762 -31.291 -67.5762 -45.5596c0 -9.79688 9.66016 -21.6406 21.6406 -21.6406h366.617c11.9814 0 21.6416 11.8447 21.6416 21.6406c0 14.2676 -7.57812 19.3789 -67.5762 45.5596c-16.1709 7.07422 -35.2861 15.4795 -57.3535 25.7363
l-1.9873 0.930664l1.79199 1.2627c6.98047 4.9502 13.4912 10.3506 19.3711 16.0596l0.623047 0.606445l0.793945 -0.358398c17.5693 -8.04688 33.0146 -14.7793 46.626 -20.7354zM435.2 294.4c14.1396 0 25.5996 -11.46 25.5996 -25.6016v-76.7998
c0 -14.1396 -11.46 -25.5996 -25.5996 -25.5996h-25.6006c-8.37988 0 -15.4707 4.29297 -20.1387 10.5215c-16.4092 -72.7812 -69.9561 -126.353 -133.461 -126.353c-62.0029 0 -114.62 51.0205 -132.344 121.174c-0.920898 1.06543 -1.6123 2.18359 -2.38965 3.28516
c-4.69238 -5.20508 -11.3066 -8.62695 -18.8662 -8.62695h-25.6006c-14.1396 0 -25.5996 11.46 -25.5996 25.5996v76.7998c0 14.1406 11.46 25.6006 25.5996 25.6006h25.6006c0 84.8301 68.7695 153.6 153.6 153.6s153.6 -68.7695 153.6 -153.6h25.6006zM102.4 192v76.7998
h-25.6006v-76.7998h25.6006zM256 76.0146c62.4639 0 113.297 66.2441 113.297 147.669c0 81.4258 -50.833 147.669 -113.297 147.669s-113.297 -66.2432 -113.297 -147.669c0 -13.6104 1.53613 -26.7344 4.18945 -39.2617
c16.1113 -12.834 64.1025 -30.8223 109.107 -30.8223c7.07422 0 12.7998 -5.72559 12.7998 -12.7998s-5.72559 -12.7998 -12.7998 -12.7998c-27.2734 0 -67.0381 7.37305 -97.374 20.5742c19.7627 -43.3496 55.9619 -72.5596 97.374 -72.5596zM383.693 291.345
c0.0244141 1.04102 0.306641 2.01465 0.306641 3.05566c0 70.5781 -57.4209 128 -128 128s-128 -57.4219 -128 -128c0 -1.04102 0.28125 -2.01465 0.306641 -3.05566c21.1631 61.9268 70.4268 105.455 127.693 105.455s106.53 -43.5283 127.693 -105.455zM435.2 192v76.7998
h-25.6006v-76.7998h25.6006z" />
    <glyph glyph-name="uniF101" unicode="&#xf101;" 
d="M484.109 286.505c18.2363 -19.6309 27.7832 -48.0566 27.8906 -82.0615v-133.015c0 -7.08008 -5.79297 -12.873 -12.8721 -12.873h-38.4033c-4.18359 -23.8135 -24.8867 -41.9424 -49.8799 -41.9424c-24.9941 0 -45.6973 18.1289 -49.8809 41.9424h-28.2119h-168.844
c-4.18262 -23.8135 -24.8857 -41.9424 -49.8799 -41.9424s-45.6973 18.1289 -49.8809 41.9424h-51.2754c-7.0791 0 -12.8721 5.79297 -12.8721 12.873v283.085c0 7.08008 5.79297 12.873 12.8721 12.873h319.88c7.08008 0 12.8721 -5.79297 12.8721 -12.873v-39.4746
h70.2617c26.9248 0 51.168 -10.084 68.2236 -28.5342zM25.7451 341.642v-257.448h40.6553c6.97266 19.5234 25.7441 33.5762 47.6279 33.5762c21.8828 0 40.6553 -14.0527 47.6279 -33.5762h158.223v217.973v39.4756h-294.134zM114.028 42.3584
c13.7305 0 24.8867 11.1562 24.8867 24.8867s-11.1562 24.8867 -24.8867 24.8867s-24.8867 -11.1562 -24.8867 -24.8867s11.1562 -24.8867 24.8867 -24.8867zM410.845 42.3584c13.7305 0 24.8867 11.1562 24.8867 24.8867s-11.1562 24.8867 -24.8867 24.8867
c-13.7314 0 -24.8867 -11.1562 -24.8867 -24.8867s11.1553 -24.8867 24.8867 -24.8867zM486.147 84.3008h0.107422v120.143c0 52.3477 -26.9248 84.8506 -70.2617 84.8506h-70.2617v-204.993h17.4854c6.97266 19.5234 25.7441 33.5752 47.6279 33.5752
c21.8828 0 40.6553 -14.0518 47.6279 -33.5752h27.6748z" />
  </font>
</defs></svg>
